SIM/waveform.vcd
$date
	Thu Dec  5 11:18:05 2024
$end
$version
	QuestaSim Version 2021.3_1
$end
$timescale
	1ps
$end

$scope module apb_mem_tb $end
$var reg 1 ! PCLK_t $end
$var reg 1 " PRESETn_t $end
$var reg 32 # pass_count [31:0] $end
$var reg 32 $ fail_count [31:0] $end

$scope task write_task $end
$var reg 10 % addr_in [9:0] $end
$var reg 32 & data_in [31:0] $end
$upscope $end

$scope task read_task $end
$var reg 10 ' addr_in [9:0] $end
$upscope $end

$scope function check_wr_rd_data $end
$var integer 32 ( check_wr_rd_data $end
$var reg 10 ) addr [9:0] $end
$var reg 32 * expected_data [31:0] $end
$var reg 32 + actual_data [31:0] $end
$upscope $end

$scope task single_wr_rd_test $end
$upscope $end

$scope task all_wr_rd_test $end
$upscope $end

$scope task pattern_test $end
$upscope $end

$scope module apb_mem_inst $end
$var parameter 32 , RDY_COUNT $end
$var wire 1 - PCLK $end
$var wire 1 . PRESETn $end
$var reg 2 / State [1:0] $end
$var reg 2 0 Next [1:0] $end
$var reg 32 1 rdata [31:0] $end
$var integer 32 2 rdy_counter $end
$upscope $end
$upscope $end
$enddefinitions $end
#0
$dumpvars
0!
0"
b0 #
b0 $
b0 /
b0 0
b0 1
bx %
bx &
bx '
bx )
bx *
bx +
b1 ,
b0 2
b0 (
0.
0-
$end
#5000
1!
1-
#10000
0!
0-
#15000
1"
1!
1.
1-
b1010 %
b10010001101000101011001111000 &
b1 0
#20000
0!
0-
#25000
1!
1-
b0 0
b1 0
b1 /
b10 0
#30000
0!
0-
#35000
1!
1-
b10 /
b0 0
#40000
0!
0-
#45000
1!
1-
b1010 '
b10 0
b0 0
b0 /
b1 0
#50000
0!
0-
#55000
1!
1-
b0 0
b1 0
b1 /
b10 0
#60000
0!
0-
#65000
1!
1-
b10 /
b0 0
b10010001101000101011001111000 1
#70000
0!
0-
#75000
1!
1-
b1010 )
b10010001101000101011001111000 *
b10010001101000101011001111000 +
b1 (
b1 #
b0 %
b10010000101010011010100100100 &
b0 1
b10 0
b0 0
b0 /
b1 0
#80000
0!
0-
#85000
1!
1-
b0 0
b1 0
b1 /
b10 0
#90000
0!
0-
#95000
1!
1-
b10 /
b0 0
#100000
0!
0-
#105000
1!
1-
b0 '
b10 0
b0 0
b0 /
b1 0
#110000
0!
0-
#115000
1!
1-
b0 0
b1 0
b1 /
b10 0
#120000
0!
0-
#125000
1!
1-
b10 /
b0 0
b10010000101010011010100100100 1
#130000
0!
0-
#135000
1!
1-
b0 )
b10010000101010011010100100100 *
b10010000101010011010100100100 +
b10 #
b1 %
b11000000100010010101111010000001 &
b0 1
b10 0
b0 0
b0 /
b1 0
#140000
0!
0-
#145000
1!
1-
b0 0
b1 0
b1 /
b10 0
#150000
0!
0-
#155000
1!
1-
b10 /
b0 0
#160000
0!
0-
#165000
1!
1-
b1 '
b10 0
b0 0
b0 /
b1 0
#170000
0!
0-
#175000
1!
1-
b0 0
b1 0
b1 /
b10 0
#180000
0!
0-
#185000
1!
1-
b10 /
b0 0
b11000000100010010101111010000001 1
#190000
0!
0-
#195000
1!
1-
b1 )
b11000000100010010101111010000001 *
b11000000100010010101111010000001 +
b11 #
b10 %
b10000100100001001101011000001001 &
b0 1
b10 0
b0 0
b0 /
b1 0
#200000
0!
0-
#205000
1!
1-
b0 0
b1 0
b1 /
b10 0
#210000
0!
0-
#215000
1!
1-
b10 /
b0 0
#220000
0!
0-
#225000
1!
1-
b10 '
b10 0
b0 0
b0 /
b1 0
#230000
0!
0-
#235000
1!
1-
b0 0
b1 0
b1 /
b10 0
#240000
0!
0-
#245000
1!
1-
b10 /
b0 0
b10000100100001001101011000001001 1
#250000
0!
0-
#255000
1!
1-
b10 )
b10000100100001001101011000001001 *
b10000100100001001101011000001001 +
b100 #
b11 %
b10110001111100000101011001100011 &
b0 1
b10 0
b0 0
b0 /
b1 0
#260000
0!
0-
#265000
1!
1-
b0 0
b1 0
b1 /
b10 0
#270000
0!
0-
#275000
1!
1-
b10 /
b0 0
#280000
0!
0-
#285000
1!
1-
b11 '
b10 0
b0 0
b0 /
b1 0
#290000
0!
0-
#295000
1!
1-
b0 0
b1 0
b1 /
b10 0
#300000
0!
0-
#305000
1!
1-
b10 /
b0 0
b10110001111100000101011001100011 1
#310000
0!
0-
#315000
1!
1-
b11 )
b10110001111100000101011001100011 *
b10110001111100000101011001100011 +
b101 #
b100 %
b110101110010111101100001101 &
b0 1
b10 0
b0 0
b0 /
b1 0
#320000
0!
0-
#325000
1!
1-
b0 0
b1 0
b1 /
b10 0
#330000
0!
0-
#335000
1!
1-
b10 /
b0 0
#340000
0!
0-
#345000
1!
1-
b100 '
b10 0
b0 0
b0 /
b1 0
#350000
0!
0-
#355000
1!
1-
b0 0
b1 0
b1 /
b10 0
#360000
0!
0-
#365000
1!
1-
b10 /
b0 0
b110101110010111101100001101 1
#370000
0!
0-
#375000
1!
1-
b100 )
b110101110010111101100001101 *
b110101110010111101100001101 +
b110 #
b101 %
b1000110110111111001100110001101 &
b0 1
b10 0
b0 0
b0 /
b1 0
#380000
0!
0-
#385000
1!
1-
b0 0
b1 0
b1 /
b10 0
#390000
0!
0-
#395000
1!
1-
b10 /
b0 0
#400000
0!
0-
#405000
1!
1-
b101 '
b10 0
b0 0
b0 /
b1 0
#410000
0!
0-
#415000
1!
1-
b0 0
b1 0
b1 /
b10 0
#420000
0!
0-
#425000
1!
1-
b10 /
b0 0
b1000110110111111001100110001101 1
#430000
0!
0-
#435000
1!
1-
b101 )
b1000110110111111001100110001101 *
b1000110110111111001100110001101 +
b111 #
b110 %
b10110010110000101000010001100101 &
b0 1
b10 0
b0 0
b0 /
b1 0
#440000
0!
0-
#445000
1!
1-
b0 0
b1 0
b1 /
b10 0
#450000
0!
0-
#455000
1!
1-
b10 /
b0 0
#460000
0!
0-
#465000
1!
1-
b110 '
b10 0
b0 0
b0 /
b1 0
#470000
0!
0-
#475000
1!
1-
b0 0
b1 0
b1 /
b10 0
#480000
0!
0-
#485000
1!
1-
b10 /
b0 0
b10110010110000101000010001100101 1
#490000
0!
0-
#495000
1!
1-
b110 )
b10110010110000101000010001100101 *
b10110010110000101000010001100101 +
b1000 #
b111 %
b10001001001101110101001000010010 &
b0 1
b10 0
b0 0
b0 /
b1 0
#500000
0!
0-
#505000
1!
1-
b0 0
b1 0
b1 /
b10 0
#510000
0!
0-
#515000
1!
1-
b10 /
b0 0
#520000
0!
0-
#525000
1!
1-
b111 '
b10 0
b0 0
b0 /
b1 0
#530000
0!
0-
#535000
1!
1-
b0 0
b1 0
b1 /
b10 0
#540000
0!
0-
#545000
1!
1-
b10 /
b0 0
b10001001001101110101001000010010 1
#550000
0!
0-
#555000
1!
1-
b111 )
b10001001001101110101001000010010 *
b10001001001101110101001000010010 +
b1001 #
b1000 %
b111100111110001100000001 &
b0 1
b10 0
b0 0
b0 /
b1 0
#560000
0!
0-
#565000
1!
1-
b0 0
b1 0
b1 /
b10 0
#570000
0!
0-
#575000
1!
1-
b10 /
b0 0
#580000
0!
0-
#585000
1!
1-
b1000 '
b10 0
b0 0
b0 /
b1 0
#590000
0!
0-
#595000
1!
1-
b0 0
b1 0
b1 /
b10 0
#600000
0!
0-
#605000
1!
1-
b10 /
b0 0
b111100111110001100000001 1
#610000
0!
0-
#615000
1!
1-
b1000 )
b111100111110001100000001 *
b111100111110001100000001 +
b1010 #
b1001 %
b110110101111100110100001101 &
b0 1
b10 0
b0 0
b0 /
b1 0
#620000
0!
0-
#625000
1!
1-
b0 0
b1 0
b1 /
b10 0
#630000
0!
0-
#635000
1!
1-
b10 /
b0 0
#640000
0!
0-
#645000
1!
1-
b1001 '
b10 0
b0 0
b0 /
b1 0
#650000
0!
0-
#655000
1!
1-
b0 0
b1 0
b1 /
b10 0
#660000
0!
0-
#665000
1!
1-
b10 /
b0 0
b110110101111100110100001101 1
#670000
0!
0-
#675000
1!
1-
b1001 )
b110110101111100110100001101 *
b110110101111100110100001101 +
b1011 #
b1010 %
b111011001000111111000101110110 &
b0 1
b10 0
b0 0
b0 /
b1 0
#680000
0!
0-
#685000
1!
1-
b0 0
b1 0
b1 /
b10 0
#690000
0!
0-
#695000
1!
1-
b10 /
b0 0
#700000
0!
0-
#705000
1!
1-
b1010 '
b10010001101000101011001111000 1
b10 0
b0 0
b0 /
b1 0
b0 1
#710000
0!
0-
#715000
1!
1-
b0 0
b1 0
b1 /
b10 0
#720000
0!
0-
#725000
1!
1-
b10 /
b0 0
b111011001000111111000101110110 1
#730000
0!
0-
#735000
1!
1-
b1010 )
b111011001000111111000101110110 *
b111011001000111111000101110110 +
b1100 #
b1011 %
b11110100011011100110100111101 &
b0 1
b10 0
b0 0
b0 /
b1 0
#740000
0!
0-
#745000
1!
1-
b0 0
b1 0
b1 /
b10 0
#750000
0!
0-
#755000
1!
1-
b10 /
b0 0
#760000
0!
0-
#765000
1!
1-
b1011 '
b10 0
b0 0
b0 /
b1 0
#770000
0!
0-
#775000
1!
1-
b0 0
b1 0
b1 /
b10 0
#780000
0!
0-
#785000
1!
1-
b10 /
b0 0
b11110100011011100110100111101 1
#790000
0!
0-
#795000
1!
1-
b1011 )
b11110100011011100110100111101 *
b11110100011011100110100111101 +
b1101 #
b1100 %
b1110110110101000101011111101101 &
b0 1
b10 0
b0 0
b0 /
b1 0
#800000
0!
0-
#805000
1!
1-
b0 0
b1 0
b1 /
b10 0
#810000
0!
0-
#815000
1!
1-
b10 /
b0 0
#820000
0!
0-
#825000
1!
1-
b1100 '
b10 0
b0 0
b0 /
b1 0
#830000
0!
0-
#835000
1!
1-
b0 0
b1 0
b1 /
b10 0
#840000
0!
0-
#845000
1!
1-
b10 /
b0 0
b1110110110101000101011111101101 1
#850000
0!
0-
#855000
1!
1-
b1100 )
b1110110110101000101011111101101 *
b1110110110101000101011111101101 +
b1110 #
b1101 %
b1000110001011011111011110001100 &
b0 1
b10 0
b0 0
b0 /
b1 0
#860000
0!
0-
#865000
1!
1-
b0 0
b1 0
b1 /
b10 0
#870000
0!
0-
#875000
1!
1-
b10 /
b0 0
#880000
0!
0-
#885000
1!
1-
b1101 '
b10 0
b0 0
b0 /
b1 0
#890000
0!
0-
#895000
1!
1-
b0 0
b1 0
b1 /
b10 0
#900000
0!
0-
#905000
1!
1-
b10 /
b0 0
b1000110001011011111011110001100 1
#910000
0!
0-
#915000
1!
1-
b1101 )
b1000110001011011111011110001100 *
b1000110001011011111011110001100 +
b1111 #
b1110 %
b1111100111111011110100111111001 &
b0 1
b10 0
b0 0
b0 /
b1 0
#920000
0!
0-
#925000
1!
1-
b0 0
b1 0
b1 /
b10 0
#930000
0!
0-
#935000
1!
1-
b10 /
b0 0
#940000
0!
0-
#945000
1!
1-
b1110 '
b10 0
b0 0
b0 /
b1 0
#950000
0!
0-
#955000
1!
1-
b0 0
b1 0
b1 /
b10 0
#960000
0!
0-
#965000
1!
1-
b10 /
b0 0
b1111100111111011110100111111001 1
#970000
0!
0-
#975000
1!
1-
b1110 )
b1111100111111011110100111111001 *
b1111100111111011110100111111001 +
b10000 #
b1111 %
b11100011001101110010010011000110 &
b0 1
b10 0
b0 0
b0 /
b1 0
#980000
0!
0-
#985000
1!
1-
b0 0
b1 0
b1 /
b10 0
#990000
0!
0-
#995000
1!
1-
b10 /
b0 0
#1000000
0!
0-
#1005000
1!
1-
b1111 '
b10 0
b0 0
b0 /
b1 0
#1010000
0!
0-
#1015000
1!
1-
b0 0
b1 0
b1 /
b10 0
#1020000
0!
0-
#1025000
1!
1-
b10 /
b0 0
b11100011001101110010010011000110 1
#1030000
0!
0-
#1035000
1!
1-
b1111 )
b11100011001101110010010011000110 *
b11100011001101110010010011000110 +
b10001 #
b10000 %
b11100010111101111000010011000101 &
b0 1
b10 0
b0 0
b0 /
b1 0
#1040000
0!
0-
#1045000
1!
1-
b0 0
b1 0
b1 /
b10 0
#1050000
0!
0-
#1055000
1!
1-
b10 /
b0 0
#1060000
0!
0-
#1065000
1!
1-
b10000 '
b10 0
b0 0
b0 /
b1 0
#1070000
0!
0-
#1075000
1!
1-
b0 0
b1 0
b1 /
b10 0
#1080000
0!
0-
#1085000
1!
1-
b10 /
b0 0
b11100010111101111000010011000101 1
#1090000
0!
0-
#1095000
1!
1-
b10000 )
b11100010111101111000010011000101 *
b11100010111101111000010011000101 +
b10010 #
b10001 %
b11010101000100111101001010101010 &
b0 1
b10 0
b0 0
b0 /
b1 0
#1100000
0!
0-
#1105000
1!
1-
b0 0
b1 0
b1 /
b10 0
#1110000
0!
0-
#1115000
1!
1-
b10 /
b0 0
#1120000
0!
0-
#1125000
1!
1-
b10001 '
b10 0
b0 0
b0 /
b1 0
#1130000
0!
0-
#1135000
1!
1-
b0 0
b1 0
b1 /
b10 0
#1140000
0!
0-
#1145000
1!
1-
b10 /
b0 0
b11010101000100111101001010101010 1
#1150000
0!
0-
#1155000
1!
1-
b10001 )
b11010101000100111101001010101010 *
b11010101000100111101001010101010 +
b10011 #
b10010 %
b1110010101011111111011111100101 &
b0 1
b10 0
b0 0
b0 /
b1 0
#1160000
0!
0-
#1165000
1!
1-
b0 0
b1 0
b1 /
b10 0
#1170000
0!
0-
#1175000
1!
1-
b10 /
b0 0
#1180000
0!
0-
#1185000
1!
1-
b10010 '
b10 0
b0 0
b0 /
b1 0
#1190000
0!
0-
#1195000
1!
1-
b0 0
b1 0
b1 /
b10 0
#1200000
0!
0-
#1205000
1!
1-
b10 /
b0 0
b1110010101011111111011111100101 1
#1210000
0!
0-
#1215000
1!
1-
b10010 )
b1110010101011111111011111100101 *
b1110010101011111111011111100101 +
b10100 #
b10011 %
b10111011110100100111001001110111 &
b0 1
b10 0
b0 0
b0 /
b1 0
#1220000
0!
0-
#1225000
1!
1-
b0 0
b1 0
b1 /
b10 0
#1230000
0!
0-
#1235000
1!
1-
b10 /
b0 0
#1240000
0!
0-
#1245000
1!
1-
b10011 '
b10 0
b0 0
b0 /
b1 0
#1250000
0!
0-
#1255000
1!
1-
b0 0
b1 0
b1 /
b10 0
#1260000
0!
0-
#1265000
1!
1-
b10 /
b0 0
b10111011110100100111001001110111 1
#1270000
0!
0-
#1275000
1!
1-
b10011 )
b10111011110100100111001001110111 *
b10111011110100100111001001110111 +
b10101 #
b10100 %
b10001001001100101101011000010010 &
b0 1
b10 0
b0 0
b0 /
b1 0
#1280000
0!
0-
#1285000
1!
1-
b0 0
b1 0
b1 /
b10 0
#1290000
0!
0-
#1295000
1!
1-
b10 /
b0 0
#1300000
0!
0-
#1305000
1!
1-
b10100 '
b10 0
b0 0
b0 /
b1 0
#1310000
0!
0-
#1315000
1!
1-
b0 0
b1 0
b1 /
b10 0
#1320000
0!
0-
#1325000
1!
1-
b10 /
b0 0
b10001001001100101101011000010010 1
#1330000
0!
0-
#1335000
1!
1-
b10100 )
b10001001001100101101011000010010 *
b10001001001100101101011000010010 +
b10110 #
b10101 %
b1000111111011001101101110001111 &
b0 1
b10 0
b0 0
b0 /
b1 0
#1340000
0!
0-
#1345000
1!
1-
b0 0
b1 0
b1 /
b10 0
#1350000
0!
0-
#1355000
1!
1-
b10 /
b0 0
#1360000
0!
0-
#1365000
1!
1-
b10101 '
b10 0
b0 0
b0 /
b1 0
#1370000
0!
0-
#1375000
1!
1-
b0 0
b1 0
b1 /
b10 0
#1380000
0!
0-
#1385000
1!
1-
b10 /
b0 0
b1000111111011001101101110001111 1
#1390000
0!
0-
#1395000
1!
1-
b10101 )
b1000111111011001101101110001111 *
b1000111111011001101101110001111 +
b10111 #
b10110 %
b1111001001100000110100111110010 &
b0 1
b10 0
b0 0
b0 /
b1 0
#1400000
0!
0-
#1405000
1!
1-
b0 0
b1 0
b1 /
b10 0
#1410000
0!
0-
#1415000
1!
1-
b10 /
b0 0
#1420000
0!
0-
#1425000
1!
1-
b10110 '
b10 0
b0 0
b0 /
b1 0
#1430000
0!
0-
#1435000
1!
1-
b0 0
b1 0
b1 /
b10 0
#1440000
0!
0-
#1445000
1!
1-
b10 /
b0 0
b1111001001100000110100111110010 1
#1450000
0!
0-
#1455000
1!
1-
b10110 )
b1111001001100000110100111110010 *
b1111001001100000110100111110010 +
b11000 #
b10111 %
b11100111011101101001011011001110 &
b0 1
b10 0
b0 0
b0 /
b1 0
#1460000
0!
0-
#1465000
1!
1-
b0 0
b1 0
b1 /
b10 0
#1470000
0!
0-
#1475000
1!
1-
b10 /
b0 0
#1480000
0!
0-
#1485000
1!
1-
b10111 '
b10 0
b0 0
b0 /
b1 0
#1490000
0!
0-
#1495000
1!
1-
b0 0
b1 0
b1 /
b10 0
#1500000
0!
0-
#1505000
1!
1-
b10 /
b0 0
b11100111011101101001011011001110 1
#1510000
0!
0-
#1515000
1!
1-
b10111 )
b11100111011101101001011011001110 *
b11100111011101101001011011001110 +
b11001 #
b11000 %
b11110100000000000111101011101000 &
b0 1
b10 0
b0 0
b0 /
b1 0
#1520000
0!
0-
#1525000
1!
1-
b0 0
b1 0
b1 /
b10 0
#1530000
0!
0-
#1535000
1!
1-
b10 /
b0 0
#1540000
0!
0-
#1545000
1!
1-
b11000 '
b10 0
b0 0
b0 /
b1 0
#1550000
0!
0-
#1555000
1!
1-
b0 0
b1 0
b1 /
b10 0
#1560000
0!
0-
#1565000
1!
1-
b10 /
b0 0
b11110100000000000111101011101000 1
#1570000
0!
0-
#1575000
1!
1-
b11000 )
b11110100000000000111101011101000 *
b11110100000000000111101011101000 +
b11010 #
b11001 %
b11100010110010100100111011000101 &
b0 1
b10 0
b0 0
b0 /
b1 0
#1580000
0!
0-
#1585000
1!
1-
b0 0
b1 0
b1 /
b10 0
#1590000
0!
0-
#1595000
1!
1-
b10 /
b0 0
#1600000
0!
0-
#1605000
1!
1-
b11001 '
b10 0
b0 0
b0 /
b1 0
#1610000
0!
0-
#1615000
1!
1-
b0 0
b1 0
b1 /
b10 0
#1620000
0!
0-
#1625000
1!
1-
b10 /
b0 0
b11100010110010100100111011000101 1
#1630000
0!
0-
#1635000
1!
1-
b11001 )
b11100010110010100100111011000101 *
b11100010110010100100111011000101 +
b11011 #
b11010 %
b101110010110000100100101011100 &
b0 1
b10 0
b0 0
b0 /
b1 0
#1640000
0!
0-
#1645000
1!
1-
b0 0
b1 0
b1 /
b10 0
#1650000
0!
0-
#1655000
1!
1-
b10 /
b0 0
#1660000
0!
0-
#1665000
1!
1-
b11010 '
b10 0
b0 0
b0 /
b1 0
#1670000
0!
0-
#1675000
1!
1-
b0 0
b1 0
b1 /
b10 0
#1680000
0!
0-
#1685000
1!
1-
b10 /
b0 0
b101110010110000100100101011100 1
#1690000
0!
0-
#1695000
1!
1-
b11010 )
b101110010110000100100101011100 *
b101110010110000100100101011100 +
b11100 #
b11011 %
b11011110100011100010100010111101 &
b0 1
b10 0
b0 0
b0 /
b1 0
#1700000
0!
0-
#1705000
1!
1-
b0 0
b1 0
b1 /
b10 0
#1710000
0!
0-
#1715000
1!
1-
b10 /
b0 0
#1720000
0!
0-
#1725000
1!
1-
b11011 '
b10 0
b0 0
b0 /
b1 0
#1730000
0!
0-
#1735000
1!
1-
b0 0
b1 0
b1 /
b10 0
#1740000
0!
0-
#1745000
1!
1-
b10 /
b0 0
b11011110100011100010100010111101 1
#1750000
0!
0-
#1755000
1!
1-
b11011 )
b11011110100011100010100010111101 *
b11011110100011100010100010111101 +
b11101 #
b11100 %
b10010110101010110101100000101101 &
b0 1
b10 0
b0 0
b0 /
b1 0
#1760000
0!
0-
#1765000
1!
1-
b0 0
b1 0
b1 /
b10 0
#1770000
0!
0-
#1775000
1!
1-
b10 /
b0 0
#1780000
0!
0-
#1785000
1!
1-
b11100 '
b10 0
b0 0
b0 /
b1 0
#1790000
0!
0-
#1795000
1!
1-
b0 0
b1 0
b1 /
b10 0
#1800000
0!
0-
#1805000
1!
1-
b10 /
b0 0
b10010110101010110101100000101101 1
#1810000
0!
0-
#1815000
1!
1-
b11100 )
b10010110101010110101100000101101 *
b10010110101010110101100000101101 +
b11110 #
b11101 %
b10110010101001110010011001100101 &
b0 1
b10 0
b0 0
b0 /
b1 0
#1820000
0!
0-
#1825000
1!
1-
b0 0
b1 0
b1 /
b10 0
#1830000
0!
0-
#1835000
1!
1-
b10 /
b0 0
#1840000
0!
0-
#1845000
1!
1-
b11101 '
b10 0
b0 0
b0 /
b1 0
#1850000
0!
0-
#1855000
1!
1-
b0 0
b1 0
b1 /
b10 0
#1860000
0!
0-
#1865000
1!
1-
b10 /
b0 0
b10110010101001110010011001100101 1
#1870000
0!
0-
#1875000
1!
1-
b11101 )
b10110010101001110010011001100101 *
b10110010101001110010011001100101 +
b11111 #
b11110 %
b10110001111011110110001001100011 &
b0 1
b10 0
b0 0
b0 /
b1 0
#1880000
0!
0-
#1885000
1!
1-
b0 0
b1 0
b1 /
b10 0
#1890000
0!
0-
#1895000
1!
1-
b10 /
b0 0
#1900000
0!
0-
#1905000
1!
1-
b11110 '
b10 0
b0 0
b0 /
b1 0
#1910000
0!
0-
#1915000
1!
1-
b0 0
b1 0
b1 /
b10 0
#1920000
0!
0-
#1925000
1!
1-
b10 /
b0 0
b10110001111011110110001001100011 1
#1930000
0!
0-
#1935000
1!
1-
b11110 )
b10110001111011110110001001100011 *
b10110001111011110110001001100011 +
b100000 #
b11111 %
b101011100111000011100001010 &
b0 1
b10 0
b0 0
b0 /
b1 0
#1940000
0!
0-
#1945000
1!
1-
b0 0
b1 0
b1 /
b10 0
#1950000
0!
0-
#1955000
1!
1-
b10 /
b0 0
#1960000
0!
0-
#1965000
1!
1-
b11111 '
b10 0
b0 0
b0 /
b1 0
#1970000
0!
0-
#1975000
1!
1-
b0 0
b1 0
b1 /
b10 0
#1980000
0!
0-
#1985000
1!
1-
b10 /
b0 0
b101011100111000011100001010 1
#1990000
0!
0-
#1995000
1!
1-
b11111 )
b101011100111000011100001010 *
b101011100111000011100001010 +
b100001 #
b100000 %
b11000000001110110010001010000000 &
b0 1
b10 0
b0 0
b0 /
b1 0
#2000000
0!
0-
#2005000
1!
1-
b0 0
b1 0
b1 /
b10 0
#2010000
0!
0-
#2015000
1!
1-
b10 /
b0 0
#2020000
0!
0-
#2025000
1!
1-
b100000 '
b10 0
b0 0
b0 /
b1 0
#2030000
0!
0-
#2035000
1!
1-
b0 0
b1 0
b1 /
b10 0
#2040000
0!
0-
#2045000
1!
1-
b10 /
b0 0
b11000000001110110010001010000000 1
#2050000
0!
0-
#2055000
1!
1-
b100000 )
b11000000001110110010001010000000 *
b11000000001110110010001010000000 +
b100010 #
b100001 %
b10000011001000010000100100000 &
b0 1
b10 0
b0 0
b0 /
b1 0
#2060000
0!
0-
#2065000
1!
1-
b0 0
b1 0
b1 /
b10 0
#2070000
0!
0-
#2075000
1!
1-
b10 /
b0 0
#2080000
0!
0-
#2085000
1!
1-
b100001 '
b10 0
b0 0
b0 /
b1 0
#2090000
0!
0-
#2095000
1!
1-
b0 0
b1 0
b1 /
b10 0
#2100000
0!
0-
#2105000
1!
1-
b10 /
b0 0
b10000011001000010000100100000 1
#2110000
0!
0-
#2115000
1!
1-
b100001 )
b10000011001000010000100100000 *
b10000011001000010000100100000 +
b100011 #
b100010 %
b1010101011110000100010110101010 &
b0 1
b10 0
b0 0
b0 /
b1 0
#2120000
0!
0-
#2125000
1!
1-
b0 0
b1 0
b1 /
b10 0
#2130000
0!
0-
#2135000
1!
1-
b10 /
b0 0
#2140000
0!
0-
#2145000
1!
1-
b100010 '
b10 0
b0 0
b0 /
b1 0
#2150000
0!
0-
#2155000
1!
1-
b0 0
b1 0
b1 /
b10 0
#2160000
0!
0-
#2165000
1!
1-
b10 /
b0 0
b1010101011110000100010110101010 1
#2170000
0!
0-
#2175000
1!
1-
b100010 )
b1010101011110000100010110101010 *
b1010101011110000100010110101010 +
b100100 #
b100011 %
b11001110110011001100110010011101 &
b0 1
b10 0
b0 0
b0 /
b1 0
#2180000
0!
0-
#2185000
1!
1-
b0 0
b1 0
b1 /
b10 0
#2190000
0!
0-
#2195000
1!
1-
b10 /
b0 0
#2200000
0!
0-
#2205000
1!
1-
b100011 '
b10 0
b0 0
b0 /
b1 0
#2210000
0!
0-
#2215000
1!
1-
b0 0
b1 0
b1 /
b10 0
#2220000
0!
0-
#2225000
1!
1-
b10 /
b0 0
b11001110110011001100110010011101 1
#2230000
0!
0-
#2235000
1!
1-
b100011 )
b11001110110011001100110010011101 *
b11001110110011001100110010011101 +
b100101 #
b100100 %
b11001011001000000011111010010110 &
b0 1
b10 0
b0 0
b0 /
b1 0
#2240000
0!
0-
#2245000
1!
1-
b0 0
b1 0
b1 /
b10 0
#2250000
0!
0-
#2255000
1!
1-
b10 /
b0 0
#2260000
0!
0-
#2265000
1!
1-
b100100 '
b10 0
b0 0
b0 /
b1 0
#2270000
0!
0-
#2275000
1!
1-
b0 0
b1 0
b1 /
b10 0
#2280000
0!
0-
#2285000
1!
1-
b10 /
b0 0
b11001011001000000011111010010110 1
#2290000
0!
0-
#2295000
1!
1-
b100100 )
b11001011001000000011111010010110 *
b11001011001000000011111010010110 +
b100110 #
b100101 %
b10001001100000111011100000010011 &
b0 1
b10 0
b0 0
b0 /
b1 0
#2300000
0!
0-
#2305000
1!
1-
b0 0
b1 0
b1 /
b10 0
#2310000
0!
0-
#2315000
1!
1-
b10 /
b0 0
#2320000
0!
0-
#2325000
1!
1-
b100101 '
b10 0
b0 0
b0 /
b1 0
#2330000
0!
0-
#2335000
1!
1-
b0 0
b1 0
b1 /
b10 0
#2340000
0!
0-
#2345000
1!
1-
b10 /
b0 0
b10001001100000111011100000010011 1
#2350000
0!
0-
#2355000
1!
1-
b100101 )
b10001001100000111011100000010011 *
b10001001100000111011100000010011 +
b100111 #
b100110 %
b10000110101111000011100000001101 &
b0 1
b10 0
b0 0
b0 /
b1 0
#2360000
0!
0-
#2365000
1!
1-
b0 0
b1 0
b1 /
b10 0
#2370000
0!
0-
#2375000
1!
1-
b10 /
b0 0
#2380000
0!
0-
#2385000
1!
1-
b100110 '
b10 0
b0 0
b0 /
b1 0
#2390000
0!
0-
#2395000
1!
1-
b0 0
b1 0
b1 /
b10 0
#2400000
0!
0-
#2405000
1!
1-
b10 /
b0 0
b10000110101111000011100000001101 1
#2410000
0!
0-
#2415000
1!
1-
b100110 )
b10000110101111000011100000001101 *
b10000110101111000011100000001101 +
b101000 #
b100111 %
b10101001101001111101011001010011 &
b0 1
b10 0
b0 0
b0 /
b1 0
#2420000
0!
0-
#2425000
1!
1-
b0 0
b1 0
b1 /
b10 0
#2430000
0!
0-
#2435000
1!
1-
b10 /
b0 0
#2440000
0!
0-
#2445000
1!
1-
b100111 '
b10 0
b0 0
b0 /
b1 0
#2450000
0!
0-
#2455000
1!
1-
b0 0
b1 0
b1 /
b10 0
#2460000
0!
0-
#2465000
1!
1-
b10 /
b0 0
b10101001101001111101011001010011 1
#2470000
0!
0-
#2475000
1!
1-
b100111 )
b10101001101001111101011001010011 *
b10101001101001111101011001010011 +
b101001 #
b101000 %
b110101100111111101110101101011 &
b0 1
b10 0
b0 0
b0 /
b1 0
#2480000
0!
0-
#2485000
1!
1-
b0 0
b1 0
b1 /
b10 0
#2490000
0!
0-
#2495000
1!
1-
b10 /
b0 0
#2500000
0!
0-
#2505000
1!
1-
b101000 '
b10 0
b0 0
b0 /
b1 0
#2510000
0!
0-
#2515000
1!
1-
b0 0
b1 0
b1 /
b10 0
#2520000
0!
0-
#2525000
1!
1-
b10 /
b0 0
b110101100111111101110101101011 1
#2530000
0!
0-
#2535000
1!
1-
b101000 )
b110101100111111101110101101011 *
b110101100111111101110101101011 +
b101010 #
b101001 %
b11101010101001100010101011010101 &
b0 1
b10 0
b0 0
b0 /
b1 0
#2540000
0!
0-
#2545000
1!
1-
b0 0
b1 0
b1 /
b10 0
#2550000
0!
0-
#2555000
1!
1-
b10 /
b0 0
#2560000
0!
0-
#2565000
1!
1-
b101001 '
b10 0
b0 0
b0 /
b1 0
#2570000
0!
0-
#2575000
1!
1-
b0 0
b1 0
b1 /
b10 0
#2580000
0!
0-
#2585000
1!
1-
b10 /
b0 0
b11101010101001100010101011010101 1
#2590000
0!
0-
#2595000
1!
1-
b101001 )
b11101010101001100010101011010101 *
b11101010101001100010101011010101 +
b101011 #
b101010 %
b10000001000101110100101000000010 &
b0 1
b10 0
b0 0
b0 /
b1 0
#2600000
0!
0-
#2605000
1!
1-
b0 0
b1 0
b1 /
b10 0
#2610000
0!
0-
#2615000
1!
1-
b10 /
b0 0
#2620000
0!
0-
#2625000
1!
1-
b101010 '
b10 0
b0 0
b0 /
b1 0
#2630000
0!
0-
#2635000
1!
1-
b0 0
b1 0
b1 /
b10 0
#2640000
0!
0-
#2645000
1!
1-
b10 /
b0 0
b10000001000101110100101000000010 1
#2650000
0!
0-
#2655000
1!
1-
b101010 )
b10000001000101110100101000000010 *
b10000001000101110100101000000010 +
b101100 #
b101011 %
b11010111010101100011111010101110 &
b0 1
b10 0
b0 0
b0 /
b1 0
#2660000
0!
0-
#2665000
1!
1-
b0 0
b1 0
b1 /
b10 0
#2670000
0!
0-
#2675000
1!
1-
b10 /
b0 0
#2680000
0!
0-
#2685000
1!
1-
b101011 '
b10 0
b0 0
b0 /
b1 0
#2690000
0!
0-
#2695000
1!
1-
b0 0
b1 0
b1 /
b10 0
#2700000
0!
0-
#2705000
1!
1-
b10 /
b0 0
b11010111010101100011111010101110 1
#2710000
0!
0-
#2715000
1!
1-
b101011 )
b11010111010101100011111010101110 *
b11010111010101100011111010101110 +
b101101 #
b101100 %
b1110111111111110100100011101 &
b0 1
b10 0
b0 0
b0 /
b1 0
#2720000
0!
0-
#2725000
1!
1-
b0 0
b1 0
b1 /
b10 0
#2730000
0!
0-
#2735000
1!
1-
b10 /
b0 0
